{
    "location": {
        "name": "Toronto",
        "position": [
            43.653,
            -79.387
        ],
        "description": "My home since 2014 after graduating from college & the best city for food!",
        "pics": [
            {
                "url": "./pics/toronto/1.jpg"
            },
            {
                "url": "./pics/toronto/2.jpg"
            },
            {
                "url": "./pics/toronto/3.jpg"
            }
        ]
    },
    "locations": [
        {
            "name": "Toronto",
            "position": [
                43.653,
                -79.387
            ],
            "description": "My home since 2014 after graduating from college & the best city for food!",
            "pics": [
                {
                    "url": "./pics/toronto/1.jpg"
                },
                {
                    "url": "./pics/toronto/2.jpg"
                },
                {
                    "url": "./pics/toronto/3.jpg"
                }
            ]
        },
        {
            "name": "Montreal",
            "position": [
                45.497,
                -73.610
            ]
        },
        {
            "name": "Tokyo",
            "position": [
                35.682,
                139.759
            ]
        },
        {
            "name": "Sao Miguel",
            "description": "The largest island of the Azores - the Portguese archipelago. We visited during the off season in October and got lucky with warm weather and clear skies for most of our trip. Home to incredible landscapes, and volcanic hotsprings.",
            "pics": [
                {
                    "url": "./pics/azores/1.jpg"
                },
                {
                    "url": "./pics/azores/2.jpg"
                },
                {
                    "url": "./pics/azores/3.jpg"
                }
            ],
            "position": [
                37.808,
                -25.473
            ]
        },
        {
            "name": "Ho Chi Minh",
            "position": [
                10.775,
                106.702
            ]
        },
        {
            "name": "Barbados",
            "position": [
                13.150,
                -59.525
            ]
        },
        {
            "name": "Singapore",
            "position": [
                1.340,
                103.830
            ]
        },
        {
            "name": "Hong Kong",
            "position": [
                22.350,
                114.184
            ]
        },
        {
            "name": "Amsterdam",
            "position": [
                52.374,
                4.897
            ]
        },
        {
            "name": "Kinderdijk",
            "position": [
                51.888,
                4.635
            ]
        },
        {
            "name": "Tofino",
            "position": [
                49.152,
                -125.904
            ]
        },
        {
            "name": "Nanaimo",
            "position": [
                49.163,
                -123.937
            ]
        },
        {
            "name": "Las Vegas",
            "position": [
                36.167,
                -115.148
            ]
        },
        {
            "name": "Bryce Canyon",
            "position": [
                37.570,
                -112.185
            ]
        },
        {
            "name": "Grand Canyon",
            "position": [
                36.197,
                -112.053
            ]
        },
        {
            "name": "Page",
            "position": [
                36.914,
                -111.457
            ]
        },
        {
            "name": "Cottonwood Canyon",
            "position": [
                37.508,
                -112.026
            ]
        },
        {
            "name": "Washington, D.C.",
            "position": [
                38.895,
                -77.036
            ]
        }
    ]
}